{
  "$schema": "http://json-schema.org/draft-07/schema#",
  "type": "object",
  "title": "Vulnerabilities::ArchivedRecord#data schema",
  "description": "The schema validates the content of the Vulnerabilities::ArchivedRecord#data attribute",
  "additionalProperties": false,
  "properties": {
    "report_type": {
      "type": "string"
    },
    "scanner": {
      "type": "string"
    },
    "state": {
      "type": "string"
    },
    "title": {
      "type": "string"
    },
    "description": {
      "type": "string"
    },
    "severity": {
      "type": "string"
    },
    "cve_value": {
      "type": ["null", "string"]
    },
    "cwe_value": {
      "type": ["null", "string"]
    },
    "created_at": {
      "type": "date-time"
    },
    "location": {
      "type": "object"
    },
    "resolved_on_default_branch": {
      "type": "boolean"
    },
    "notes_summary": {
      "type": "string"
    },
    "full_path": {
      "type": "string"
    },
    "cvss": {
      "type": "array",
      "items": {
        "type": "object",
        "properties": {
          "vendor": {
            "type": "string"
          },
          "vector": {
            "type": "string"
          }
        },
        "required": [
          "vendor",
          "vector"
        ]
      }
    },
    "dismissal_reason": {
      "type": ["null", "string"]
    }
  },
  "required": [
    "report_type",
    "scanner",
    "state",
    "title",
    "description",
    "severity",
    "cve_value",
    "cwe_value",
    "created_at",
    "location",
    "resolved_on_default_branch",
    "notes_summary",
    "full_path",
    "cvss",
    "dismissal_reason"
  ]
}
